(export (version D)
  (design
    (source /home/jeanbaptiste/bu/valves_shield/solenoids_shield/solenoids_shield.sch)
    (date "Tue 22 Jan 2019 06:41:20 PM EST")
    (tool "Eeschema 5.0.2-1.fc29")
    (sheet (number 1) (name /) (tstamps /)
      (title_block
        (title)
        (company)
        (rev)
        (date)
        (source solenoids_shield.sch)
        (comment (number 1) (value ""))
        (comment (number 2) (value ""))
        (comment (number 3) (value ""))
        (comment (number 4) (value "")))))
  (components
    (comp (ref M001)
      (value MCP23017-E_SP)
      (footprint Package_DIP:DIP-28_W7.62mm)
      (datasheet http://www.microchip.com/mymicrochip/filehandler.aspx?ddocname=en023709)
      (fields
        (field (name Category) "Integrated Circuits (ICs)")
        (field (name DK_Datasheet_Link) http://www.microchip.com/mymicrochip/filehandler.aspx?ddocname=en023709)
        (field (name DK_Detail_Page) /product-detail/en/microchip-technology/MCP23017-E-SP/MCP23017-E-SP-ND/894272)
        (field (name Description) "IC I/O EXPANDER I2C 16B 28SDIP")
        (field (name Digi-Key_PN) MCP23017-E/SP-ND)
        (field (name Family) "Interface - I/O Expanders")
        (field (name MPN) MCP23017-E/SP)
        (field (name Manufacturer) "Microchip Technology")
        (field (name Status) Active))
      (libsource (lib dk_Interface-I-O-Expanders) (part MCP23017-E_SP) (description "IC I/O EXPANDER I2C 16B 28SDIP"))
      (sheetpath (names /) (tstamps /))
      (tstamp 5C47410F))
    (comp (ref U01)
      (value ULN2003A)
      (footprint Package_DIP:DIP-16_W7.62mm)
      (datasheet http://www.ti.com/lit/ds/symlink/uln2003a.pdf)
      (libsource (lib Transistor_Array) (part ULN2003A) (description "High Voltage, High Current Darlington Transistor Arrays, SOIC16/SOIC16W/DIP16/TSSOP16"))
      (sheetpath (names /) (tstamps /))
      (tstamp 5C4743BD))
    (comp (ref U03)
      (value ULN2003A)
      (footprint Package_DIP:DIP-16_W7.62mm)
      (datasheet http://www.ti.com/lit/ds/symlink/uln2003a.pdf)
      (libsource (lib Transistor_Array) (part ULN2003A) (description "High Voltage, High Current Darlington Transistor Arrays, SOIC16/SOIC16W/DIP16/TSSOP16"))
      (sheetpath (names /) (tstamps /))
      (tstamp 5C47FD3F))
    (comp (ref U02)
      (value ULN2003A)
      (footprint Package_DIP:DIP-16_W7.62mm)
      (datasheet http://www.ti.com/lit/ds/symlink/uln2003a.pdf)
      (libsource (lib Transistor_Array) (part ULN2003A) (description "High Voltage, High Current Darlington Transistor Arrays, SOIC16/SOIC16W/DIP16/TSSOP16"))
      (sheetpath (names /) (tstamps /))
      (tstamp 5C48091F))
    (comp (ref U04)
      (value ULN2003A)
      (footprint Package_DIP:DIP-16_W7.62mm)
      (datasheet http://www.ti.com/lit/ds/symlink/uln2003a.pdf)
      (libsource (lib Transistor_Array) (part ULN2003A) (description "High Voltage, High Current Darlington Transistor Arrays, SOIC16/SOIC16W/DIP16/TSSOP16"))
      (sheetpath (names /) (tstamps /))
      (tstamp 5C4819B1))
    (comp (ref J01)
      (value Terminal)
      (footprint TerminalBlock_Phoenix:TerminalBlock_Phoenix_MPT-0,5-8-2.54_1x08_P2.54mm_Horizontal)
      (datasheet ~)
      (libsource (lib Connector) (part Screw_Terminal_01x08) (description "Generic screw terminal, single row, 01x08, script generated (kicad-library-utils/schlib/autogen/connector/)"))
      (sheetpath (names /) (tstamps /))
      (tstamp 5C487973))
    (comp (ref J02)
      (value Terminal)
      (footprint TerminalBlock_Phoenix:TerminalBlock_Phoenix_MPT-0,5-8-2.54_1x08_P2.54mm_Horizontal)
      (datasheet ~)
      (libsource (lib Connector) (part Screw_Terminal_01x08) (description "Generic screw terminal, single row, 01x08, script generated (kicad-library-utils/schlib/autogen/connector/)"))
      (sheetpath (names /) (tstamps /))
      (tstamp 5C496F60))
    (comp (ref J03)
      (value Terminal)
      (footprint TerminalBlock_Phoenix:TerminalBlock_Phoenix_MPT-0,5-8-2.54_1x08_P2.54mm_Horizontal)
      (datasheet ~)
      (libsource (lib Connector) (part Screw_Terminal_01x08) (description "Generic screw terminal, single row, 01x08, script generated (kicad-library-utils/schlib/autogen/connector/)"))
      (sheetpath (names /) (tstamps /))
      (tstamp 5C49AA8C))
    (comp (ref J04)
      (value Terminal)
      (footprint TerminalBlock_Phoenix:TerminalBlock_Phoenix_MPT-0,5-8-2.54_1x08_P2.54mm_Horizontal)
      (datasheet ~)
      (libsource (lib Connector) (part Screw_Terminal_01x08) (description "Generic screw terminal, single row, 01x08, script generated (kicad-library-utils/schlib/autogen/connector/)"))
      (sheetpath (names /) (tstamps /))
      (tstamp 5C49F219))
    (comp (ref J08_01)
      (value Conn_01x08)
      (footprint Connector_PinSocket_2.54mm:PinSocket_1x08_P2.54mm_Vertical)
      (datasheet ~)
      (libsource (lib Connector_Generic) (part Conn_01x08) (description "Generic connector, single row, 01x08, script generated (kicad-library-utils/schlib/autogen/connector/)"))
      (sheetpath (names /) (tstamps /))
      (tstamp 5C4A48A1))
    (comp (ref J08_02)
      (value Conn_01x08)
      (footprint Connector_PinSocket_2.54mm:PinSocket_1x08_P2.54mm_Vertical)
      (datasheet ~)
      (libsource (lib Connector_Generic) (part Conn_01x08) (description "Generic connector, single row, 01x08, script generated (kicad-library-utils/schlib/autogen/connector/)"))
      (sheetpath (names /) (tstamps /))
      (tstamp 5C4A4A19))
    (comp (ref J06_01)
      (value Conn_01x06)
      (footprint Connector_PinSocket_2.54mm:PinSocket_1x06_P2.54mm_Vertical)
      (datasheet ~)
      (libsource (lib Connector_Generic) (part Conn_01x06) (description "Generic connector, single row, 01x06, script generated (kicad-library-utils/schlib/autogen/connector/)"))
      (sheetpath (names /) (tstamps /))
      (tstamp 5C4A4C23))
    (comp (ref J10_01)
      (value Conn_01x10)
      (footprint Connector_PinSocket_2.54mm:PinSocket_1x10_P2.54mm_Vertical)
      (datasheet ~)
      (libsource (lib Connector_Generic) (part Conn_01x10) (description "Generic connector, single row, 01x10, script generated (kicad-library-utils/schlib/autogen/connector/)"))
      (sheetpath (names /) (tstamps /))
      (tstamp 5C4A4DC4))
    (comp (ref S01)
      (value jb_solderselector_01x03)
      (footprint solenoids_shield:solderselector)
      (libsource (lib jb_solderselector_01x03) (part jb_solderselector_01x03) (description ""))
      (sheetpath (names /) (tstamps /))
      (tstamp 5C4CF7A6)))
  (libparts
    (libpart (lib Connector) (part Screw_Terminal_01x08)
      (description "Generic screw terminal, single row, 01x08, script generated (kicad-library-utils/schlib/autogen/connector/)")
      (docs ~)
      (footprints
        (fp TerminalBlock*:*))
      (fields
        (field (name Reference) J)
        (field (name Value) Screw_Terminal_01x08))
      (pins
        (pin (num 1) (name Pin_1) (type passive))
        (pin (num 2) (name Pin_2) (type passive))
        (pin (num 3) (name Pin_3) (type passive))
        (pin (num 4) (name Pin_4) (type passive))
        (pin (num 5) (name Pin_5) (type passive))
        (pin (num 6) (name Pin_6) (type passive))
        (pin (num 7) (name Pin_7) (type passive))
        (pin (num 8) (name Pin_8) (type passive))))
    (libpart (lib Connector_Generic) (part Conn_01x06)
      (description "Generic connector, single row, 01x06, script generated (kicad-library-utils/schlib/autogen/connector/)")
      (docs ~)
      (footprints
        (fp Connector*:*_1x??_*))
      (fields
        (field (name Reference) J)
        (field (name Value) Conn_01x06))
      (pins
        (pin (num 1) (name Pin_1) (type passive))
        (pin (num 2) (name Pin_2) (type passive))
        (pin (num 3) (name Pin_3) (type passive))
        (pin (num 4) (name Pin_4) (type passive))
        (pin (num 5) (name Pin_5) (type passive))
        (pin (num 6) (name Pin_6) (type passive))))
    (libpart (lib Connector_Generic) (part Conn_01x08)
      (description "Generic connector, single row, 01x08, script generated (kicad-library-utils/schlib/autogen/connector/)")
      (docs ~)
      (footprints
        (fp Connector*:*_1x??_*))
      (fields
        (field (name Reference) J)
        (field (name Value) Conn_01x08))
      (pins
        (pin (num 1) (name Pin_1) (type passive))
        (pin (num 2) (name Pin_2) (type passive))
        (pin (num 3) (name Pin_3) (type passive))
        (pin (num 4) (name Pin_4) (type passive))
        (pin (num 5) (name Pin_5) (type passive))
        (pin (num 6) (name Pin_6) (type passive))
        (pin (num 7) (name Pin_7) (type passive))
        (pin (num 8) (name Pin_8) (type passive))))
    (libpart (lib Connector_Generic) (part Conn_01x10)
      (description "Generic connector, single row, 01x10, script generated (kicad-library-utils/schlib/autogen/connector/)")
      (docs ~)
      (footprints
        (fp Connector*:*_1x??_*))
      (fields
        (field (name Reference) J)
        (field (name Value) Conn_01x10))
      (pins
        (pin (num 1) (name Pin_1) (type passive))
        (pin (num 2) (name Pin_2) (type passive))
        (pin (num 3) (name Pin_3) (type passive))
        (pin (num 4) (name Pin_4) (type passive))
        (pin (num 5) (name Pin_5) (type passive))
        (pin (num 6) (name Pin_6) (type passive))
        (pin (num 7) (name Pin_7) (type passive))
        (pin (num 8) (name Pin_8) (type passive))
        (pin (num 9) (name Pin_9) (type passive))
        (pin (num 10) (name Pin_10) (type passive))))
    (libpart (lib Transistor_Array) (part ULN2003)
      (aliases
        (alias ULN2003A)
        (alias ULN2002)
        (alias ULN2002A)
        (alias ULN2004)
        (alias ULN2004A))
      (description "High Voltage, High Current Darlington Transistor Arrays, SOIC16/SOIC16W/DIP16/TSSOP16")
      (docs http://www.ti.com/lit/ds/symlink/uln2003a.pdf)
      (footprints
        (fp DIP*W7.62mm*)
        (fp SOIC*3.9x9.9mm*P1.27mm*)
        (fp SSOP*4.4x5.2mm*P0.65mm*)
        (fp TSSOP*4.4x5mm*P0.65mm*)
        (fp SOIC*W*5.3x10.2mm*P1.27mm*))
      (fields
        (field (name Reference) U)
        (field (name Value) ULN2003))
      (pins
        (pin (num 1) (name I1) (type input))
        (pin (num 2) (name I2) (type input))
        (pin (num 3) (name I3) (type input))
        (pin (num 4) (name I4) (type input))
        (pin (num 5) (name I5) (type input))
        (pin (num 6) (name I6) (type input))
        (pin (num 7) (name I7) (type input))
        (pin (num 8) (name GND) (type power_in))
        (pin (num 9) (name COM) (type passive))
        (pin (num 10) (name O7) (type openCol))
        (pin (num 11) (name O6) (type openCol))
        (pin (num 12) (name O5) (type openCol))
        (pin (num 13) (name O4) (type openCol))
        (pin (num 14) (name O3) (type openCol))
        (pin (num 15) (name O2) (type openCol))
        (pin (num 16) (name O1) (type openCol))))
    (libpart (lib dk_Interface-I-O-Expanders) (part MCP23017-E_SP)
      (description "IC I/O EXPANDER I2C 16B 28SDIP")
      (docs http://www.microchip.com/mymicrochip/filehandler.aspx?ddocname=en023709)
      (fields
        (field (name Reference) U)
        (field (name Value) MCP23017-E_SP)
        (field (name Footprint) digikey-footprints:DIP-28_W7.62mm)
        (field (name Datasheet) http://www.microchip.com/mymicrochip/filehandler.aspx?ddocname=en023709)
        (field (name Digi-Key_PN) MCP23017-E/SP-ND)
        (field (name MPN) MCP23017-E/SP)
        (field (name Category) "Integrated Circuits (ICs)")
        (field (name Family) "Interface - I/O Expanders")
        (field (name DK_Datasheet_Link) http://www.microchip.com/mymicrochip/filehandler.aspx?ddocname=en023709)
        (field (name DK_Detail_Page) /product-detail/en/microchip-technology/MCP23017-E-SP/MCP23017-E-SP-ND/894272)
        (field (name Description) "IC I/O EXPANDER I2C 16B 28SDIP")
        (field (name Manufacturer) "Microchip Technology")
        (field (name Status) Active))
      (pins
        (pin (num 1) (name GPB0) (type BiDi))
        (pin (num 2) (name GPB1) (type BiDi))
        (pin (num 3) (name GPB2) (type BiDi))
        (pin (num 4) (name GPB3) (type BiDi))
        (pin (num 5) (name GPB4) (type BiDi))
        (pin (num 6) (name GPB5) (type BiDi))
        (pin (num 7) (name GPB6) (type BiDi))
        (pin (num 8) (name GPB7) (type BiDi))
        (pin (num 9) (name VDD) (type power_in))
        (pin (num 10) (name VSS) (type power_in))
        (pin (num 11) (name NC) (type NotConnected))
        (pin (num 12) (name SCK) (type input))
        (pin (num 13) (name SDA) (type BiDi))
        (pin (num 14) (name NC) (type NotConnected))
        (pin (num 15) (name A0) (type input))
        (pin (num 16) (name A1) (type input))
        (pin (num 17) (name A2) (type input))
        (pin (num 18) (name ~RESET) (type output))
        (pin (num 19) (name INTB) (type output))
        (pin (num 20) (name INTA) (type output))
        (pin (num 21) (name GPA0) (type BiDi))
        (pin (num 22) (name GPA1) (type BiDi))
        (pin (num 23) (name GPA2) (type BiDi))
        (pin (num 24) (name GPA3) (type BiDi))
        (pin (num 25) (name GPA4) (type BiDi))
        (pin (num 26) (name GPA5) (type BiDi))
        (pin (num 27) (name GPA6) (type BiDi))
        (pin (num 28) (name GPA7) (type BiDi))))
    (libpart (lib jb_solderselector_01x03) (part jb_solderselector_01x03)
      (fields
        (field (name Reference) S)
        (field (name Value) jb_solderselector_01x03))
      (pins
        (pin (num 1) (name I0) (type input))
        (pin (num 2) (name I1) (type input))
        (pin (num 3) (name I2) (type input))
        (pin (num 4) (name Vcc) (type input))
        (pin (num 5) (name GND) (type input)))))
  (libraries
    (library (logical Connector)
      (uri /usr/share/kicad/library/Connector.lib))
    (library (logical Connector_Generic)
      (uri /usr/share/kicad/library/Connector_Generic.lib))
    (library (logical Transistor_Array)
      (uri /usr/share/kicad/library/Transistor_Array.lib))
    (library (logical dk_Interface-I-O-Expanders)
      (uri /home/jeanbaptiste/Documents/kicad_components/digikey-kicad-library/digikey-symbols/dk_Interface-I-O-Expanders.lib))
    (library (logical jb_solderselector_01x03)
      (uri /home/jeanbaptiste/bu/valves_shield/solenoids_shield/jb_solderselector_01x03.lib)))
  (nets
    (net (code 1) (name "Net-(J02-Pad6)")
      (node (ref J02) (pin 6))
      (node (ref U02) (pin 12)))
    (net (code 2) (name "Net-(J03-Pad4)")
      (node (ref J03) (pin 4))
      (node (ref U03) (pin 14)))
    (net (code 3) (name "Net-(J03-Pad2)")
      (node (ref J03) (pin 2))
      (node (ref U03) (pin 16)))
    (net (code 4) (name "Net-(J02-Pad8)")
      (node (ref J02) (pin 8))
      (node (ref U02) (pin 10)))
    (net (code 5) (name "Net-(J02-Pad2)")
      (node (ref U02) (pin 16))
      (node (ref J02) (pin 2)))
    (net (code 6) (name "Net-(J03-Pad6)")
      (node (ref U03) (pin 12))
      (node (ref J03) (pin 6)))
    (net (code 7) (name "Net-(J02-Pad4)")
      (node (ref U02) (pin 14))
      (node (ref J02) (pin 4)))
    (net (code 8) (name "Net-(J03-Pad8)")
      (node (ref J03) (pin 8))
      (node (ref U03) (pin 10)))
    (net (code 9) (name +12V)
      (node (ref J04) (pin 1))
      (node (ref J02) (pin 1))
      (node (ref J02) (pin 3))
      (node (ref J02) (pin 5))
      (node (ref J02) (pin 7))
      (node (ref J01) (pin 5))
      (node (ref J04) (pin 7))
      (node (ref J04) (pin 5))
      (node (ref J04) (pin 3))
      (node (ref J08_02) (pin 8))
      (node (ref U03) (pin 9))
      (node (ref J03) (pin 1))
      (node (ref J03) (pin 3))
      (node (ref J03) (pin 5))
      (node (ref J01) (pin 1))
      (node (ref J01) (pin 3))
      (node (ref J01) (pin 7))
      (node (ref U02) (pin 9))
      (node (ref U04) (pin 9))
      (node (ref U01) (pin 9))
      (node (ref J03) (pin 7)))
    (net (code 10) (name "Net-(J01-Pad4)")
      (node (ref U01) (pin 14))
      (node (ref J01) (pin 4)))
    (net (code 11) (name "Net-(J01-Pad8)")
      (node (ref J01) (pin 8))
      (node (ref U01) (pin 10)))
    (net (code 12) (name "Net-(J01-Pad6)")
      (node (ref U01) (pin 12))
      (node (ref J01) (pin 6)))
    (net (code 13) (name "Net-(J01-Pad2)")
      (node (ref U01) (pin 16))
      (node (ref J01) (pin 2)))
    (net (code 14) (name pin15)
      (node (ref M001) (pin 28))
      (node (ref U04) (pin 7)))
    (net (code 15) (name pin14)
      (node (ref M001) (pin 27))
      (node (ref U04) (pin 5)))
    (net (code 16) (name pin13)
      (node (ref U04) (pin 3))
      (node (ref M001) (pin 26)))
    (net (code 17) (name pin12)
      (node (ref M001) (pin 25))
      (node (ref U04) (pin 1)))
    (net (code 18) (name sda)
      (node (ref M001) (pin 13))
      (node (ref J10_01) (pin 2)))
    (net (code 19) (name GND)
      (node (ref U04) (pin 8))
      (node (ref U03) (pin 8))
      (node (ref U01) (pin 8))
      (node (ref J08_02) (pin 6))
      (node (ref U02) (pin 8))
      (node (ref S01) (pin 5))
      (node (ref M001) (pin 10))
      (node (ref J08_02) (pin 7)))
    (net (code 20) (name +5V)
      (node (ref M001) (pin 18))
      (node (ref S01) (pin 4))
      (node (ref J08_02) (pin 5))
      (node (ref M001) (pin 9)))
    (net (code 21) (name scl)
      (node (ref J10_01) (pin 1))
      (node (ref M001) (pin 12)))
    (net (code 22) (name "Net-(J10_01-Pad9)")
      (node (ref J10_01) (pin 9)))
    (net (code 23) (name "Net-(J10_01-Pad8)")
      (node (ref J10_01) (pin 8)))
    (net (code 24) (name "Net-(J10_01-Pad7)")
      (node (ref J10_01) (pin 7)))
    (net (code 25) (name "Net-(J10_01-Pad6)")
      (node (ref J10_01) (pin 6)))
    (net (code 26) (name "Net-(J10_01-Pad5)")
      (node (ref J10_01) (pin 5)))
    (net (code 27) (name "Net-(J10_01-Pad4)")
      (node (ref J10_01) (pin 4)))
    (net (code 28) (name "Net-(J10_01-Pad3)")
      (node (ref J10_01) (pin 3)))
    (net (code 29) (name "Net-(J10_01-Pad10)")
      (node (ref J10_01) (pin 10)))
    (net (code 30) (name address0)
      (node (ref M001) (pin 15))
      (node (ref S01) (pin 1)))
    (net (code 31) (name address2)
      (node (ref M001) (pin 17))
      (node (ref S01) (pin 3)))
    (net (code 32) (name address1)
      (node (ref S01) (pin 2))
      (node (ref M001) (pin 16)))
    (net (code 33) (name "Net-(J04-Pad2)")
      (node (ref U04) (pin 16))
      (node (ref J04) (pin 2)))
    (net (code 34) (name "Net-(J04-Pad6)")
      (node (ref U04) (pin 12))
      (node (ref J04) (pin 6)))
    (net (code 35) (name "Net-(J04-Pad4)")
      (node (ref U04) (pin 14))
      (node (ref J04) (pin 4)))
    (net (code 36) (name "Net-(J04-Pad8)")
      (node (ref J04) (pin 8))
      (node (ref U04) (pin 10)))
    (net (code 37) (name "Net-(J08_02-Pad3)")
      (node (ref J08_02) (pin 3)))
    (net (code 38) (name "Net-(J06_01-Pad6)")
      (node (ref J06_01) (pin 6)))
    (net (code 39) (name "Net-(J06_01-Pad5)")
      (node (ref J06_01) (pin 5)))
    (net (code 40) (name "Net-(J06_01-Pad4)")
      (node (ref J06_01) (pin 4)))
    (net (code 41) (name "Net-(J06_01-Pad3)")
      (node (ref J06_01) (pin 3)))
    (net (code 42) (name "Net-(J06_01-Pad2)")
      (node (ref J06_01) (pin 2)))
    (net (code 43) (name "Net-(J06_01-Pad1)")
      (node (ref J06_01) (pin 1)))
    (net (code 44) (name "Net-(J08_02-Pad4)")
      (node (ref J08_02) (pin 4)))
    (net (code 45) (name "Net-(J08_02-Pad2)")
      (node (ref J08_02) (pin 2)))
    (net (code 46) (name "Net-(J08_02-Pad1)")
      (node (ref J08_02) (pin 1)))
    (net (code 47) (name "Net-(J08_01-Pad8)")
      (node (ref J08_01) (pin 8)))
    (net (code 48) (name "Net-(J08_01-Pad7)")
      (node (ref J08_01) (pin 7)))
    (net (code 49) (name "Net-(J08_01-Pad6)")
      (node (ref J08_01) (pin 6)))
    (net (code 50) (name "Net-(J08_01-Pad5)")
      (node (ref J08_01) (pin 5)))
    (net (code 51) (name "Net-(J08_01-Pad4)")
      (node (ref J08_01) (pin 4)))
    (net (code 52) (name "Net-(J08_01-Pad3)")
      (node (ref J08_01) (pin 3)))
    (net (code 53) (name "Net-(J08_01-Pad2)")
      (node (ref J08_01) (pin 2)))
    (net (code 54) (name "Net-(J08_01-Pad1)")
      (node (ref J08_01) (pin 1)))
    (net (code 55) (name pin05)
      (node (ref M001) (pin 6))
      (node (ref U02) (pin 3)))
    (net (code 56) (name pin04)
      (node (ref U02) (pin 1))
      (node (ref M001) (pin 5)))
    (net (code 57) (name pin03)
      (node (ref U01) (pin 7))
      (node (ref M001) (pin 4)))
    (net (code 58) (name pin02)
      (node (ref M001) (pin 3))
      (node (ref U01) (pin 5)))
    (net (code 59) (name pin01)
      (node (ref U01) (pin 3))
      (node (ref M001) (pin 2)))
    (net (code 60) (name pin00)
      (node (ref M001) (pin 1))
      (node (ref U01) (pin 1)))
    (net (code 61) (name pin06)
      (node (ref M001) (pin 7))
      (node (ref U02) (pin 5)))
    (net (code 62) (name pin11)
      (node (ref U03) (pin 7))
      (node (ref M001) (pin 24)))
    (net (code 63) (name pin10)
      (node (ref U03) (pin 5))
      (node (ref M001) (pin 23)))
    (net (code 64) (name pin09)
      (node (ref U03) (pin 3))
      (node (ref M001) (pin 22)))
    (net (code 65) (name pin08)
      (node (ref M001) (pin 21))
      (node (ref U03) (pin 1)))
    (net (code 66) (name pin07)
      (node (ref U02) (pin 7))
      (node (ref M001) (pin 8)))
    (net (code 67) (name "Net-(M001-Pad11)")
      (node (ref M001) (pin 11)))
    (net (code 68) (name "Net-(M001-Pad14)")
      (node (ref M001) (pin 14)))
    (net (code 69) (name "Net-(M001-Pad20)")
      (node (ref M001) (pin 20)))
    (net (code 70) (name "Net-(U01-Pad15)")
      (node (ref U01) (pin 15)))
    (net (code 71) (name "Net-(U01-Pad6)")
      (node (ref U01) (pin 6)))
    (net (code 72) (name "Net-(U01-Pad4)")
      (node (ref U01) (pin 4)))
    (net (code 73) (name "Net-(U01-Pad2)")
      (node (ref U01) (pin 2)))
    (net (code 74) (name "Net-(U01-Pad13)")
      (node (ref U01) (pin 13)))
    (net (code 75) (name "Net-(U01-Pad11)")
      (node (ref U01) (pin 11)))
    (net (code 76) (name "Net-(M001-Pad19)")
      (node (ref M001) (pin 19)))
    (net (code 77) (name "Net-(U02-Pad6)")
      (node (ref U02) (pin 6)))
    (net (code 78) (name "Net-(U02-Pad4)")
      (node (ref U02) (pin 4)))
    (net (code 79) (name "Net-(U02-Pad2)")
      (node (ref U02) (pin 2)))
    (net (code 80) (name "Net-(U02-Pad15)")
      (node (ref U02) (pin 15)))
    (net (code 81) (name "Net-(U02-Pad13)")
      (node (ref U02) (pin 13)))
    (net (code 82) (name "Net-(U02-Pad11)")
      (node (ref U02) (pin 11)))
    (net (code 83) (name "Net-(U04-Pad6)")
      (node (ref U04) (pin 6)))
    (net (code 84) (name "Net-(U04-Pad4)")
      (node (ref U04) (pin 4)))
    (net (code 85) (name "Net-(U04-Pad2)")
      (node (ref U04) (pin 2)))
    (net (code 86) (name "Net-(U04-Pad15)")
      (node (ref U04) (pin 15)))
    (net (code 87) (name "Net-(U04-Pad13)")
      (node (ref U04) (pin 13)))
    (net (code 88) (name "Net-(U04-Pad11)")
      (node (ref U04) (pin 11)))
    (net (code 89) (name "Net-(U03-Pad13)")
      (node (ref U03) (pin 13)))
    (net (code 90) (name "Net-(U03-Pad11)")
      (node (ref U03) (pin 11)))
    (net (code 91) (name "Net-(U03-Pad6)")
      (node (ref U03) (pin 6)))
    (net (code 92) (name "Net-(U03-Pad4)")
      (node (ref U03) (pin 4)))
    (net (code 93) (name "Net-(U03-Pad2)")
      (node (ref U03) (pin 2)))
    (net (code 94) (name "Net-(U03-Pad15)")
      (node (ref U03) (pin 15)))))